<?xml version="1.0" encoding="utf-8"?>
<!--
- Copyright 2015 Hippo B.V. (http://www.onehippo.com)
-
- Licensed under the Apache License, Version 2.0 (the "License");
- you may not use this file except in compliance with the License.
- You may obtain a copy of the License at
-
- http://www.apache.org/licenses/LICENSE-2.0
-
- Unless required by applicable law or agreed to in writing, software
- distributed under the License is distributed on an "AS IS" BASIS,
- WITHOUT WARRANTIES OR CONDITIONS OF ANY KIND, either express or implied.
- See the License for the specific language governing permissions and
- limitations under the License.
-->

<!DOCTYPE svg PUBLIC "-//W3C//DTD SVG 1.1//EN" "http://www.w3.org/Graphics/SVG/1.1/DTD/svg11.dtd">
<svg version="1.1" id="Layer_1" xmlns="http://www.w3.org/2000/svg" xmlns:xlink="http://www.w3.org/1999/xlink" x="0px" y="0px" width="32px" height="32px" viewBox="0 0 32 32" enable-background="new 0 0 32 32" xml:space="preserve">
<polyline fill="none" stroke="currentColor" stroke-miterlimit="10" points="15.041,8.959 22.541,16.459 15,24 "/>
<rect fill="currentColor" x="1" y="16" width="21" height="1"/>
<polygon fill="currentColor" points="6,5 6,11 6.938,11 7,6 27,6 27,27 7,27 7,22.024 6,22.024 6,28 28,28 28,5 "/>
</svg>
